paddrs,discharge_alc_days,_CENSOR_,SURVIVAL,SDF_LCL,SDF_UCL,STRATUM
1,0,,1,1,1,1
1,30,0,0.9847560976,0.9637664615,0.9936266574,1
1,31,0,0.9603658537,0.9327206101,0.9767921084,1
1,31,1,0.9603658537,,,1
1,32,0,0.9450734038,0.9142317607,0.9650356003,1
1,33,0,0.9328394438,0.8997893273,0.9552592279,1
1,33,1,0.9328394438,,,1
1,34,0,0.9174966898,0.881988111,0.9426672033,1
1,35,0,0.9021539358,0.8644741849,0.9297822938,1
1,36,0,0.8776055294,0.8369150489,0.9086973994,1
1,37,0,0.8591942246,0.8165453306,0.8925816971,1
1,38,0,0.8438514706,0.7997332165,0.8789885542,1
1,39,0,0.8285087166,0.7830505136,0.8652656988,1
1,40,0,0.8162345134,0.7697884146,0.8542032943,1
1,41,0,0.807028861,0.7598871118,0.8458612462,1
1,42,0,0.7886175561,0.7401922109,0.829069643,1
1,43,0,0.7732748021,0.7238814658,0.8149752815,1
1,44,0,0.7610005989,0.710894647,0.8036382845,1
1,45,0,0.7548634973,0.7044208272,0.7979502993,1
1,46,0,0.7487263957,0.697959632,0.792249764,1
1,47,0,0.7456578449,0.694733674,0.7893948858,1
1,48,0,0.7364521925,0.6850739325,0.7808122412,1
1,49,0,0.7149723369,0.6626361945,0.7606851812,1
1,51,0,0.7057666845,0.6530617184,0.7520179572,1
1,52,0,0.6934924813,0.6403330167,0.7404247496,1
1,52,1,0.6934924813,,,1
1,52,1,0.6934924813,,,1
1,53,0,0.6873005841,0.6339203988,0.7345664412,1
1,54,0,0.6842046355,0.6307180708,0.7316333926,1
1,54,1,0.6842046355,,,1
1,55,0,0.6748745723,0.6210777618,0.7227831229,1
1,56,0,0.659324467,0.6050627131,0.7079819378,1
1,57,0,0.6531044248,0.5986745039,0.7020441257,1
1,58,0,0.6406643406,0.5859278796,0.6901394917,1
1,58,1,0.6406643406,,,1
1,59,0,0.625038381,0.5699627261,0.6751401162,1
1,59,1,0.625038381,,,1
1,59,1,0.625038381,,,1
1,60,0,0.6218816215,0.5667409036,0.6721060385,1
1,61,0,0.606097824,0.5506693035,0.6568996576,1
1,62,0,0.6029410645,0.5474623972,0.6538512639,1
1,63,0,0.5903140265,0.534659101,0.6416343143,1
1,64,0,0.574530229,0.5187089718,0.6263112216,1
1,65,0,0.5650599505,0.5091672687,0.6170900705,1
1,66,0,0.561903191,0.5059913843,0.6140118464,1
1,66,1,0.561903191,,,1
1,67,0,0.5555540024,0.4996065692,0.6078175053,1
1,68,0,0.5365064366,0.4805089833,0.5891800032,1
1,69,0,0.5333318423,0.4773342874,0.5860658588,1
1,70,0,0.5238080594,0.4678242283,0.5767099726,1
1,71,0,0.5206334651,0.4646588728,0.5735868702,1
1,72,0,0.5174588708,0.4614958442,0.5704615355,1
1,73,0,0.498411305,0.4425664111,0.5516627635,1
1,74,0,0.4952367107,0.4394196136,0.5485218539,1
1,74,1,0.4952367107,,,1
1,75,0,0.4856514841,0.4299253616,0.5390312779,1
1,76,0,0.479261333,0.4236077594,0.5326928617,1
1,77,0,0.4664810308,0.4110011307,0.519988728,1
1,78,0,0.450505653,0.3952965548,0.504057233,1
1,79,0,0.4441155019,0.3890315013,0.4976685994,1
1,79,1,0.4441155019,,,1
1,81,0,0.4376790453,0.3827255154,0.4912293708,1
1,82,0,0.4344608171,0.3795762601,0.4880062013,1
1,82,1,0.4344608171,,,1
1,83,0,0.4279763273,0.3732328438,0.4815097892,1
1,84,0,0.4214918374,0.3668997894,0.4750035668,1
1,85,0,0.4117651027,0.3574197401,0.4652257341,1
1,86,0,0.4085228578,0.3542649592,0.4619614968,1
1,87,0,0.402038368,0.3479632955,0.4554255378,1
1,90,0,0.3955538782,0.3416722185,0.4488795453,1
1,91,0,0.3923116333,0.3385306725,0.4456027646,1
1,92,0,0.3858271435,0.3322556144,0.439041587,1
1,93,0,0.3825848986,0.3291221232,0.4357571699,1
1,94,0,0.3663736741,0.3134955054,0.4192963606,1
1,96,0,0.3598891843,0.3072641536,0.412693739,1
1,97,0,0.3566469394,0.3041526679,0.4093884543,1
1,98,0,0.3501624496,0.297938153,0.4027698653,1
1,99,0,0.33719347,0.285543411,0.3895001711,1
1,100,0,0.3307089802,0.2793634697,0.3828487961,1
1,101,0,0.3274667352,0.276277924,0.379518913,1
1,102,1,0.3274667352,,,1
1,102,1,0.3274667352,,,1
1,103,0,0.3208512456,0.2699760939,0.3727317785,1
1,104,0,0.314235756,0.2636874168,0.3659323043,1
1,105,0,0.3109280112,0.2605480704,0.3625278827,1
1,106,0,0.3076202664,0.2574120858,0.3591203061,1
1,107,0,0.3043125216,0.2542794892,0.3557095492,1
1,108,0,0.297697032,0.2480245705,0.3488783903,1
1,108,1,0.297697032,,,1
1,110,0,0.2910072111,0.2417046367,0.3419666875,1
1,110,1,0.2910072111,,,1
1,113,0,0.2842396015,0.2353168952,0.334970645,1
1,114,0,0.2808557968,0.2321289469,0.3314671187,1
1,115,0,0.277471992,0.2289449953,0.3279598761,1
1,116,0,0.2740881872,0.2257650786,0.3244488809,1
1,117,0,0.2673205776,0.2194175096,0.31741548,1
1,119,0,0.2571691633,0.209927458,0.3068362444,1
1,122,0,0.2537853585,0.2067726373,0.3033018903,1
1,125,0,0.2504015537,0.2036221629,0.2997634882,1
1,126,0,0.247017749,0.2004760863,0.2962209894,1
1,129,0,0.2402501394,0.1941973439,0.2891234974,1
1,132,0,0.2267149203,0.181695144,0.2748769915,1
1,133,0,0.2233311155,0.1785814819,0.271304284,1
1,135,0,0.2199473107,0.1754727124,0.2677270153,1
1,136,0,0.2165635059,0.1723689091,0.2641451166,1
1,137,0,0.2097958964,0.1661765117,0.2569671391,1
1,140,0,0.2064120916,0.1630880811,0.2533709077,1
1,141,0,0.1962606773,0.153854918,0.2425522578,1
1,146,0,0.1894930677,0.1477272104,0.2353139676,1
1,149,0,0.1861092629,0.1446719881,0.2316867759,1
1,152,0,0.1827254581,0.1416226699,0.228054081,1
1,155,0,0.1793416534,0.1385793746,0.2244157724,1
1,156,0,0.1759578486,0.1355422267,0.2207717347,1
1,160,0,0.1725740438,0.1325113569,0.2171218467,1
1,161,0,0.169190239,0.1294869025,0.2134659813,1
1,164,0,0.1624226295,0.1234578234,0.206135778,1
1,165,0,0.1556550199,0.1174562343,0.1987799733,1
1,165,1,0.1556550199,,,1
1,169,0,0.148737019,0.111330596,0.1912594931,1
1,171,1,0.148737019,,,1
1,172,0,0.1451956614,0.1081958097,0.1874133316,1
1,173,0,0.1416543038,0.105070443,0.183558528,1
1,177,0,0.1381129462,0.1019547555,0.1796948427,1
1,181,0,0.1345715886,0.0988490233,0.1758220209,1
1,181,1,0.1345715886,,,1
1,182,0,0.1309345187,0.0956556672,0.1718540864,1
1,189,0,0.1272974487,0.0924741001,0.1678754078,1
1,191,1,0.1272974487,,,1
1,192,0,0.1235534061,0.0891950039,0.1637910223,1
1,198,0,0.1198093635,0.085930044,0.1596938361,1
1,201,0,0.1123212783,0.079444451,0.1514593033,1
1,201,1,0.1123212783,,,1
1,209,0,0.1084481307,0.0760929731,0.1472084863,1
1,213,0,0.1045749832,0.072760173,0.1429408548,1
1,214,0,0.1007018357,0.0694467832,0.1386557416,1
1,215,0,0.0968286882,0.0661536072,0.1343524159,1
1,218,0,0.0929555406,0.0628815295,0.130030075,1
1,229,1,0.0929555406,,,1
1,231,0,0.0889139954,0.0594612493,0.125544341,1
1,233,1,0.0889139954,,,1
1,234,1,0.0889139954,,,1
1,250,0,0.0844682956,0.0556531067,0.1207047864,1
1,251,1,0.0844682956,,,1
1,258,0,0.0797756125,0.05162967,0.1156369017,1
1,267,0,0.0750829294,0.0476616396,0.1105203756,1
1,277,0,0.0703902463,0.0437519426,0.1053526395,1
1,279,1,0.0703902463,,,1
1,292,0,0.0653623716,0.0395599922,0.0998844382,1
1,302,0,0.0603344969,0.0354548014,0.0943406184,1
1,308,0,0.0553066221,0.0314425165,0.0887159369,1
1,319,0,0.0502787474,0.0275307777,0.0830039244,1
1,337,0,0.0452508727,0.0237291895,0.0771965335,1
1,339,0,0.0402229979,0.0200500162,0.0712836412,1
1,343,0,0.0351951232,0.0165092467,0.0652523336,1
1,389,0,0.0301672484,0.0131283,0.0590858683,1
1,389,1,0.0301672484,,,1
1,438,1,0.0301672484,,,1
1,452,0,0.0226254363,0.0078185012,0.0518791615,1
1,481,1,,,,1
1,544,1,,,,1
1,676,1,,,,1
2,0,,1,1,1,2
2,30,0,0.9887640449,0.9703419097,0.9957680772,2
2,31,0,0.9859550562,0.9665880736,0.9941300018,2
2,32,0,0.9747191011,0.951978049,0.9867654406,2
2,32,1,0.9747191011,,,2
2,33,0,0.9578164578,0.9310020919,0.9743528676,2
2,34,0,0.9493651361,0.9208312241,0.9677938871,2
2,35,0,0.9324624927,0.9009231627,0.9542160212,2
2,36,0,0.9211940638,0.8878987824,0.9449062233,2
2,37,0,0.9071085276,0.8718349131,0.9330462794,2
2,37,1,0.9071085276,,,2
2,37,1,0.9071085276,,,2
2,38,0,0.8901002427,0.8526761176,0.9184720817,2
2,39,0,0.8730919578,0.8337560593,0.9036589296,2
2,40,0,0.8475795305,0.8057396052,0.8810757879,2
2,41,0,0.8419101022,0.7995649134,0.8760062131,2
2,42,0,0.8305712456,0.7872653752,0.8658173495,2
2,44,0,0.8220671032,0.7780817686,0.8581347837,2
2,45,0,0.8022241041,0.75677885,0.8400837925,2
2,46,0,0.79938939,0.7537490401,0.8374916762,2
2,46,1,0.79938939,,,2
2,46,1,0.79938939,,,2
2,47,0,0.7822596173,0.7354890358,0.8217744368,2
2,48,0,0.7708397689,0.7233770331,0.8112359385,2
2,49,0,0.7565649584,0.7083014463,0.797999417,2
2,50,0,0.7480000721,0.6992887644,0.7900253441,2
2,51,0,0.7337252615,0.6843194154,0.7766842393,2
2,53,0,0.7251603752,0.6753676821,0.7686501647,2
2,54,0,0.7165954889,0.6664375472,0.7605948288,2
2,55,0,0.7080306026,0.6575284136,0.7525188219,2
2,56,0,0.7023206783,0.651600386,0.7471236031,2
2,57,0,0.6880458678,0.6368191105,0.7335973848,2
2,58,0,0.6766260194,0.6250328761,0.7227382563,2
2,59,0,0.6709160952,0.6191523477,0.7172963121,2
2,59,1,0.6709160952,,,2
2,59,1,0.6709160952,,,2
2,60,0,0.6536392858,0.6013915722,0.7007957001,2
2,61,0,0.6478803494,0.5954879532,0.6952792927,2
2,62,0,0.6363624765,0.5837050847,0.6842227416,2
2,62,1,0.6363624765,,,2
2,63,0,0.6276848064,0.5748442436,0.6758759241,2
2,64,0,0.6161145795,0.5630578077,0.6647196619,2
2,65,0,0.6103294661,0.5571764268,0.6591300486,2
2,66,0,0.6074369094,0.5542386649,0.6563324008,2
2,68,0,0.5987592393,0.5454369965,0.6479281857,2
2,69,0,0.581403899,0.5278852803,0.6310696642,2
2,70,0,0.5727262289,0.5191348816,0.6226156966,2
2,71,0,0.5640485587,0.5104012539,0.614145454,2
2,72,0,0.5553708886,0.5016842681,0.6056590624,2
2,73,0,0.5466932185,0.4929838123,0.5971566317,2
2,74,0,0.5438006618,0.4900873169,0.5943189407,2
2,75,0,0.5322304349,0.4785195356,0.5829505206,2
2,77,0,0.5235527648,0.4698627394,0.5744057386,2
2,78,0,0.5090899812,0.4554708596,0.5601294179,2
2,79,0,0.5033048678,0.4497267185,0.5544066649,2
2,80,0,0.4946271977,0.4411240027,0.5458094571,2
2,81,0,0.4859495275,0.432537481,0.5371965602,2
2,82,0,0.4772718574,0.4239671662,0.528567967,2
2,83,0,0.4685941873,0.415413086,0.5199236562,2
2,84,0,0.4657016305,0.4125653406,0.5170387207,2
2,85,0,0.4628090738,0.4097194057,0.5141520332,2
2,86,0,0.4599165171,0.4068752834,0.511263592,2
2,89,0,0.4570239604,0.4040329761,0.508373395,2
2,90,0,0.451238847,0.3983538167,0.5025877243,2
2,92,0,0.4483462903,0.3955169703,0.4996922458,2
2,93,1,0.4483462903,,,2
2,94,0,0.4425236112,0.3898079313,0.4938621656,2
2,95,0,0.4396122716,0.386956238,0.490944406,2
2,96,0,0.430878253,0.3784125063,0.4821802087,2
2,97,0,0.4221442344,0.3698858828,0.4733995541,2
2,98,0,0.4134102157,0.3613764934,0.4646023258,2
2,99,0,0.4075875366,0.355713212,0.4587282341,2
2,100,0,0.4046761971,0.3528844822,0.4557883902,2
2,101,0,0.398853518,0.3472328758,0.4499030772,2
2,102,0,0.3901194993,0.3387702014,0.4410609501,2
2,104,0,0.3872081598,0.3359532682,0.4381097721,2
2,105,0,0.3842968202,0.333138327,0.4351566811,2
2,107,1,0.3842968202,,,2
2,108,0,0.3754961297,0.3246340812,0.4262251896,2
2,109,1,0.3754961297,,,2
2,109,1,0.3754961297,,,2
2,110,0,0.3695358737,0.3188750455,0.4201763662,2
2,110,1,0.3695358737,,,2
2,111,0,0.366531517,0.3159728314,0.4171268378,2
2,112,0,0.3635271603,0.313072965,0.4140750961,2
2,113,0,0.3575184469,0.3072803166,0.4079649319,2
2,114,0,0.3545140902,0.3043875562,0.4049064885,2
2,114,1,0.3545140902,,,2
2,115,0,0.3514840552,0.3014695979,0.4018225542,2
2,116,0,0.3393639154,0.2898228019,0.3894632948,2
2,118,0,0.3363338804,0.2869174271,0.3863675362,2
2,120,0,0.3242137406,0.2753216499,0.3739603157,2
2,121,0,0.3211837056,0.2724292133,0.3708523895,2
2,122,0,0.3181536707,0.2695394126,0.3677419835,2
2,123,0,0.3060335308,0.2580069242,0.3552752198,2
2,125,0,0.3030034959,0.2551305751,0.3521521539,2
2,127,0,0.293913391,0.2465181075,0.3427673473,2
2,128,0,0.2908833561,0.2436528843,0.3396338064,2
2,129,0,0.2848232861,0.2379309754,0.3333586852,2
2,129,1,0.2848232861,,,2
2,131,0,0.2817606702,0.2350398507,0.3301873341,2
2,132,0,0.2786980542,0.2321517725,0.3270131277,2
2,134,0,0.2725728222,0.2263848644,0.3206560458,2
2,134,1,0.2725728222,,,2
2,135,0,0.2694754038,0.2234692824,0.3174414046,2
2,141,0,0.2663779853,0.2205570141,0.3142236711,2
2,142,0,0.2632805669,0.2176480913,0.3110028152,2
2,143,0,0.2601831485,0.2147425469,0.3077788057,2
2,143,1,0.2601831485,,,2
2,145,0,0.2570484118,0.2118009785,0.3045176562,2
2,146,0,0.2507789383,0.2059287537,0.2979852158,2
2,147,0,0.2445094648,0.2000713353,0.2914390091,2
2,149,0,0.2413747281,0.1971482804,0.2881606467,2
2,152,0,0.2382399914,0.1942290524,0.284878724,2
2,153,0,0.2351052546,0.1913136963,0.2815931982,2
2,156,0,0.2319705179,0.1884022589,0.2783040253,2
2,157,0,0.2257010445,0.1825913364,0.271714553,2
2,157,1,0.2257010445,,,2
2,158,0,0.2193432686,0.1767043181,0.2650292898,2
2,158,1,0.2193432686,,,2
2,160,0,0.2161176323,0.1737183285,0.2616381031,2
2,160,1,0.2161176323,,,2
2,161,0,0.2095686131,0.1676581443,0.2547538698,2
2,164,0,0.2030195939,0.1616188501,0.2478504486,2
2,165,0,0.1931960652,0.1526004386,0.2374580547,2
2,166,0,0.1899215556,0.1496054495,0.2339836667,2
2,166,1,0.1899215556,,,2
2,168,0,0.1832576414,0.1435129847,0.2269149521,2
2,176,0,0.1799256843,0.1404762504,0.2233718916,2
2,182,0,0.1765937272,0.1374459985,0.2198228879,2
2,184,0,0.1699298129,0.131405427,0.212706597,2
2,187,0,0.1665978558,0.128395366,0.209139068,2
2,195,0,0.1632658987,0.1253923051,0.2055651121,2
2,197,0,0.1599339416,0.1223963913,0.2019845921,2
2,198,0,0.1566019845,0.1194077794,0.198397364,2
2,200,1,0.1566019845,,,2
2,202,0,0.1497932025,0.1133038613,0.1910712674,2
2,204,0,0.1463888116,0.1102646151,0.1873965993,2
2,205,0,0.1429844206,0.1072341166,0.1837139315,2
2,208,1,0.1429844206,,,2
2,211,0,0.1394969957,0.1041267711,0.1799489619,2
2,216,0,0.1325221459,0.0979428226,0.1723910549,2
2,216,1,0.1325221459,,,2
2,220,0,0.1253587867,0.0916082003,0.1646264634,2
2,222,0,0.1181954274,0.0853242081,0.1568160133,2
2,226,0,0.1146137478,0.0822021842,0.1528926842,2
2,232,0,0.1110320682,0.0790940634,0.1489567455,2
2,238,0,0.103868709,0.0729215181,0.1410452193,2
2,241,0,0.1002870293,0.0698581938,0.1370686258,2
2,242,0,0.0967053497,0.0668109833,0.1330774016,2
2,242,1,0.0967053497,,,2
2,245,0,0.0929859132,0.0636413871,0.1289511241,2
2,246,0,0.0892664767,0.0604922489,0.124806408,2
2,247,1,0.0892664767,,,2
2,265,0,0.0853853255,0.057200653,0.1205050924,2
2,271,0,0.0815041743,0.053935718,0.1161799147,2
2,281,0,0.0776230232,0.050698783,0.1118296705,2
2,282,1,0.0776230232,,,2
2,282,1,0.0776230232,,,2
2,285,1,0.0776230232,,,2
2,287,0,0.073056963,0.0467869979,0.1069135445,2
2,311,0,0.0684909028,0.0429351217,0.1019447843,2
2,312,0,0.0639248426,0.0391464344,0.0969205338,2
2,324,1,0.0639248426,,,2
2,325,0,0.059007547,0.0350648797,0.0915864302,2
2,342,1,0.059007547,,,2
2,383,1,0.059007547,,,2
2,387,1,0.059007547,,,2
2,392,0,0.0524511529,0.0293250001,0.0852453674,2
2,408,0,0.0458947588,0.0239008817,0.078632306,2
2,424,1,0.0458947588,,,2
2,425,1,0.0458947588,,,2
2,452,1,0.0458947588,,,2
2,484,0,0.0344210691,0.0136245335,0.0712017818,2
2,522,0,0.0229473794,0.0060244371,0.061602296,2
2,585,1,,,,2
2,737,1,,,,2
3,0,,1,1,1,3
3,30,0,0.9902597403,0.9813640856,0.9949201155,3
3,31,0,0.9826839827,0.971889932,0.9893558546,3
3,31,1,0.9826839827,,,3
3,31,1,0.9826839827,,,3
3,31,1,0.9826839827,,,3
3,32,0,0.9739972734,0.9614541676,0.9824958613,3
3,32,1,0.9739972734,,,3
3,32,1,0.9739972734,,,3
3,33,0,0.9565850317,0.9412821123,0.9679676038,3
3,34,0,0.950055441,0.9338822515,0.9623522717,3
3,34,1,0.950055441,,,3
3,35,0,0.9391603098,0.9216706228,0.9528449092,3
3,36,0,0.9282651786,0.909596339,0.9431995319,3
3,37,0,0.9217280999,0.9024056864,0.9373581983,3
3,38,0,0.9151910212,0.8952499112,0.9314818948,3
3,38,1,0.9151910212,,,3
3,38,1,0.9151910212,,,3
3,39,0,0.9097304542,0.889294892,0.9265503062,3
3,39,1,0.9097304542,,,3
3,39,1,0.9097304542,,,3
3,40,0,0.8976882942,0.876228015,0.9156080429,3
3,40,1,0.8976882942,,,3
3,40,1,0.8976882942,,,3
3,40,1,0.8976882942,,,3
3,40,1,0.8976882942,,,3
3,40,1,0.8976882942,,,3
3,41,0,0.8855722558,0.863156989,0.9045205744,3
3,42,0,0.8701518434,0.8466278131,0.8903039251,3
3,43,0,0.8635430953,0.8395761871,0.8841791317,3
3,44,0,0.8503255989,0.8255248269,0.8718781804,3
3,45,0,0.8426153927,0.817357681,0.8646734258,3
3,46,0,0.8393110186,0.8138636959,0.86157951,3
3,46,1,0.8393110186,,,3
3,47,0,0.8315906807,0.8057132216,0.8543379124,3
3,48,0,0.8194587212,0.7929425727,0.842921389,3
3,48,1,0.8194587212,,,3
3,49,0,0.8095191949,0.782510251,0.833537579,3
3,50,0,0.7951621014,0.7674882244,0.8199367939,3
3,51,0,0.7874313588,0.7594210125,0.8125919404,3
3,51,1,0.7874313588,,,3
3,52,0,0.7830075871,0.7548106328,0.8083830169,3
3,52,1,0.7830075871,,,3
3,53,0,0.7730400223,0.744438098,0.7988840162,3
3,53,1,0.7730400223,,,3
3,53,1,0.7730400223,,,3
3,54,0,0.7674865739,0.7386674104,0.7935831128,3
3,54,1,0.7674865739,,,3
3,54,1,0.7674865739,,,3
3,55,0,0.7596891776,0.7305745342,0.7861306013,3
3,55,1,0.7596891776,,,3
3,56,0,0.7529958809,0.7236371904,0.7797237934,3
3,57,0,0.7407248369,0.7109428549,0.7679542662,3
3,58,0,0.7329159908,0.7028803247,0.7604491458,3
3,59,0,0.726222694,0.6959789684,0.7540069544,3
3,59,1,0.726222694,,,3
3,60,0,0.7139327715,0.6833273997,0.7421578446,3
3,60,1,0.7139327715,,,3
3,61,0,0.7060996533,0.6752772102,0.7345923579,3
3,62,0,0.699385552,0.6683857368,0.7280991185,3
3,62,1,0.699385552,,,3
3,62,1,0.699385552,,,3
3,63,0,0.6937725059,0.6626290613,0.722665972,3
3,64,0,0.6836690228,0.6522806951,0.7128729221,3
3,64,1,0.6836690228,,,3
3,65,0,0.6802956559,0.6488289861,0.7095998005,3
3,66,0,0.6701755552,0.6384851987,0.699769321,3
3,66,1,0.6701755552,,,3
3,67,0,0.6645438279,0.6327355393,0.6942922713,3
3,67,1,0.6645438279,,,3
3,68,0,0.6577742812,0.6258301519,0.6877027695,3
3,68,1,0.6577742812,,,3
3,68,1,0.6577742812,,,3
3,69,0,0.6487171483,0.6166004112,0.6788773594,3
3,70,0,0.6362635905,0.6039305773,0.6667218443,3
3,71,0,0.6272064575,0.5947311575,0.6578668017,3
3,72,0,0.6238100326,0.5912845824,0.6545430244,3
3,72,1,0.6238100326,,,3
3,72,1,0.6238100326,,,3
3,73,0,0.6192649687,0.5866739295,0.6500935892,3
3,73,1,0.6192649687,,,3
3,73,1,0.6192649687,,,3
3,74,0,0.6090009084,0.5762704668,0.6400367723,3
3,74,1,0.6090009084,,,3
3,74,1,0.6090009084,,,3
3,75,0,0.6067114313,0.5739514288,0.6377919822,3
3,76,0,0.6021324771,0.5693157069,0.6333001125,3
3,76,1,0.6021324771,,,3
3,76,1,0.6021324771,,,3
3,76,1,0.6021324771,,,3
3,77,0,0.5963759525,0.5634898919,0.627650888,3
3,77,1,0.5963759525,,,3
3,78,0,0.5836871024,0.5506640323,0.6151831976,3
3,79,0,0.5767659115,0.5436781535,0.6083728997,3
3,79,1,0.5767659115,,,3
3,80,0,0.5732983809,0.540180362,0.6049588153,3
3,80,1,0.5732983809,,,3
3,81,0,0.5721402024,0.5390123021,0.6038182599,3
3,81,1,0.5721402024,,,3
3,82,0,0.5640165078,0.5308236668,0.595813887,3
3,83,0,0.5593743967,0.5261487876,0.5912357579,3
3,84,0,0.5512507021,0.5179752926,0.5832167269,3
3,85,0,0.5454480631,0.5121429269,0.5774831849,3
3,86,0,0.5419664798,0.5086458342,0.5740408049,3
3,86,1,0.5419664798,,,3
3,87,0,0.5349883706,0.5016408323,0.5671371646,3
3,87,1,0.5349883706,,,3
3,88,0,0.5303261626,0.4969638439,0.5625215968,3
3,88,1,0.5303261626,,,3
3,89,0,0.5256536853,0.4922789709,0.5578934978,3
3,90,0,0.5151406116,0.4817494951,0.547469162,3
3,91,0,0.5046275379,0.4712358615,0.5370294936,3
3,92,0,0.4976188221,0.4642355433,0.5300612216,3
3,93,0,0.4917782256,0.4584072942,0.5242491464,3
3,93,1,0.4917782256,,,3
3,94,0,0.488265524,0.4549037797,0.5207518801,3
3,95,0,0.4859237229,0.4525690845,0.5184194195,3
3,96,0,0.4824110213,0.449068513,0.5149193042,3
3,97,0,0.4765565186,0.4432381501,0.5090819797,3
3,98,0,0.4695311154,0.4362481892,0.5020709197,3
3,99,0,0.4648475133,0.4315921415,0.4973930761,3
3,100,0,0.45782211,0.4246139662,0.4903705973,3
3,100,1,0.45782211,,,3
3,101,0,0.4554743044,0.4222831068,0.4880226386,3
3,102,0,0.4519525958,0.4187883115,0.4844992542,3
3,102,1,0.4519525958,,,3
3,103,0,0.449598676,0.4164529566,0.4821436548,3
3,103,1,0.449598676,,,3
3,104,0,0.446058529,0.4129416067,0.4786001327,3
3,105,0,0.4366181368,0.4035870032,0.4691420458,3
3,106,0,0.4318979408,0.3989146223,0.4644082455,3
3,107,0,0.4283577937,0.3954124965,0.4608558069,3
3,108,0,0.4236375976,0.3907458832,0.4561164298,3
3,108,1,0.4236375976,,,3
3,109,0,0.4165375262,0.3837312846,0.4489828073,3
3,109,1,0.4165375262,,,3
3,110,0,0.4106039432,0.3778737721,0.4430167187,3
3,110,1,0.4106039432,,,3
3,111,0,0.4010826923,0.3684838808,0.4334343722,3
3,112,0,0.3963220669,0.3637941706,0.4286381487,3
3,113,0,0.3915614415,0.3591079725,0.4238385363,3
3,114,0,0.386800816,0.3544253047,0.4190355172,3
3,115,0,0.3808500343,0.348576964,0.4130269233,3
3,115,1,0.3808500343,,,3
3,115,1,0.3808500343,,,3
3,115,1,0.3808500343,,,3
3,116,0,0.3796486146,0.3473961003,0.4118139772,3
3,116,1,0.3796486146,,,3
3,116,1,0.3796486146,,,3
3,117,0,0.3760213985,0.3438307222,0.4081522319,3
3,118,0,0.3723941825,0.3402675048,0.4044884119,3
3,118,1,0.3723941825,,,3
3,119,0,0.3651161203,0.3331227381,0.3971322844,3
3,120,0,0.3614770892,0.3295536816,0.3934510282,3
3,120,1,0.3614770892,,,3
3,121,0,0.3590429,0.3271669548,0.3909879912,3
3,121,1,0.3590429,,,3
3,122,0,0.3529367282,0.321182808,0.384806683,3
3,123,0,0.3480517908,0.3164001389,0.3798571823,3
3,123,1,0.3480517908,,,3
3,124,0,0.3456007219,0.3140013241,0.3773728501,3
3,124,1,0.3456007219,,,3
3,125,0,0.3406811386,0.3091885574,0.3723847208,3
3,125,1,0.3406811386,,,3
3,126,0,0.3357437308,0.304361415,0.3673756663,3
3,127,0,0.332040675,0.3007439734,0.3636160885,3
3,128,0,0.330806323,0.2995387181,0.3623623618,3
3,128,1,0.330806323,,,3
3,129,0,0.329567348,0.2983288866,0.3611040206,3
3,130,0,0.328328373,0.2971193404,0.3598454068,3
3,131,0,0.3221334981,0.2910759125,0.353548226,3
3,132,0,0.3196555481,0.2886605622,0.3510274222,3
3,133,0,0.3146996481,0.2838333577,0.3459824724,3
3,134,0,0.3109827232,0.280216037,0.3421958124,3
3,135,0,0.3097437482,0.2790108548,0.3409330269,3
3,136,0,0.3060268232,0.2753970935,0.3371429624,3
3,136,1,0.3060268232,,,3
3,137,0,0.3022947888,0.2717702216,0.3333360679,3
3,138,0,0.2998067658,0.2693538417,0.3307966714,3
3,138,1,0.2998067658,,,3
3,138,1,0.2998067658,,,3
3,138,1,0.2998067658,,,3
3,139,0,0.2985470735,0.2681296912,0.3295117645,3
3,140,0,0.2960276889,0.2656823705,0.3269410167,3
3,142,0,0.2947679966,0.2644592021,0.325655174,3
3,143,0,0.292248612,0.2620138545,0.3230825459,3
3,144,0,0.2884695352,0.2583483209,0.3192212326,3
3,144,1,0.2884695352,,,3
3,145,0,0.2872043179,0.2571213608,0.3179282895,3
3,146,0,0.2859391006,0.2558947424,0.3166350209,3
3,146,1,0.2859391006,,,3
3,147,0,0.2846682602,0.2546625793,0.3153361335,3
3,148,0,0.2821265793,0.2521993052,0.3127373577,3
3,149,0,0.2795848984,0.2497374414,0.3101372399,3
3,151,0,0.278314058,0.2485070413,0.3088366749,3
3,152,0,0.2770432175,0.2472769974,0.3075357708,3
3,152,1,0.2770432175,,,3
3,153,0,0.2744898238,0.2448057367,0.3049219077,3
3,153,1,0.2744898238,,,3
3,154,0,0.2732071611,0.2435644132,0.3036088398,3
3,156,0,0.2706418356,0.2410828931,0.3009816334,3
3,157,0,0.2693591729,0.2398426993,0.2996674923,3
3,158,1,0.2693591729,,,3
3,159,0,0.2654927733,0.2361051593,0.2957055594,3
3,159,1,0.2654927733,,,3
3,160,0,0.2641976866,0.2348535153,0.2943782621,3
3,161,0,0.2616075132,0.2323514302,0.2917225263,3
3,162,0,0.2577222531,0.2286013332,0.2877360471,3
3,162,1,0.2577222531,,,3
3,163,0,0.2564206255,0.2273452763,0.2864002962,3
3,164,0,0.2538173705,0.2248344198,0.2837276024,3
3,164,1,0.2538173705,,,3
3,165,0,0.2525090335,0.2235726078,0.2823843489,3
3,165,1,0.2525090335,,,3
3,165,1,0.2525090335,,,3
3,166,1,0.2525090335,,,3
3,167,0,0.2471930538,0.2184433532,0.2769295211,3
3,168,0,0.244535064,0.2158815324,0.2741994566,3
3,169,0,0.2405480793,0.2120423539,0.2701010031,3
3,170,0,0.2378900895,0.2094852943,0.2673664394,3
3,170,1,0.2378900895,,,3
3,171,0,0.2365536283,0.2081996804,0.2659914667,3
3,171,1,0.2365536283,,,3
3,172,0,0.2325214642,0.2043220262,0.2618423338,3
3,172,1,0.2325214642,,,3
3,174,0,0.2298177262,0.2017231549,0.2590591598,3
3,175,0,0.2257621193,0.1978288535,0.2548806217,3
3,176,0,0.2217065123,0.1939394216,0.25069749,3
3,177,0,0.2176509054,0.1900549335,0.2465096925,3
3,178,1,0.2176509054,,,3
3,180,0,0.2149302691,0.1874504288,0.2436993375,3
3,182,0,0.2108493146,0.1835480195,0.2394797038,3
3,185,0,0.2094889965,0.1822483886,0.2380720532,3
3,186,1,0.2094889965,,,3
3,187,0,0.2067505782,0.1796323675,0.2352383858,3
3,187,1,0.2067505782,,,3
3,188,0,0.205372241,0.1783157485,0.233812134,3
3,188,1,0.205372241,,,3
3,188,1,0.205372241,,,3
3,189,0,0.2039751509,0.1769801613,0.2323677514,3
3,190,0,0.2025780609,0.1756452495,0.2309227342,3
3,191,0,0.1997838807,0.1729774676,0.2280307808,3
3,192,0,0.1983867906,0.1716446057,0.2265838367,3
3,193,0,0.1969897006,0.1703124354,0.2251362422,3
3,193,1,0.1969897006,,,3
3,194,1,0.1969897006,,,3
3,194,1,0.1969897006,,,3
3,195,0,0.195562239,0.1689491829,0.2236596696,3
3,198,0,0.1941347774,0.1675866948,0.2221823806,3
3,200,0,0.1927073158,0.1662249759,0.2207043707,3
3,201,0,0.1898523926,0.1635038646,0.2177461692,3
3,203,0,0.188424931,0.1621444823,0.216265968,3
3,204,0,0.1869974694,0.160785889,0.2147850267,3
3,205,0,0.1855700078,0.15942809,0.2133033401,3
3,205,1,0.1855700078,,,3
3,205,1,0.1855700078,,,3
3,207,1,0.1855700078,,,3
3,207,1,0.1855700078,,,3
3,207,1,0.1855700078,,,3
3,208,1,0.1855700078,,,3
3,210,0,0.1810804108,0.1551425611,0.2086612062,3
3,210,1,0.1810804108,,,3
3,211,0,0.1795714074,0.1537028848,0.2071004969,3
3,212,0,0.1765534005,0.1508266265,0.2039761954,3
3,215,0,0.1750443971,0.1493900587,0.2024125896,3
3,216,0,0.1735353937,0.1479545415,0.2008480044,3
3,218,0,0.1720263903,0.1465200824,0.1992824327,3
3,220,1,0.1720263903,,,3
3,221,0,0.1705040328,0.1450726454,0.1977035594,3
3,223,1,0.1705040328,,,3
3,223,1,0.1705040328,,,3
3,225,0,0.1689539962,0.1435971531,0.1960982172,3
3,228,0,0.1674039595,0.1421228669,0.1944917536,3
3,230,0,0.1658539228,0.1406497955,0.1928841602,3
3,232,0,0.1643038862,0.1391779482,0.191275428,3
3,232,1,0.1643038862,,,3
3,233,0,0.1627390873,0.1376917738,0.1896520129,3
3,234,1,0.1627390873,,,3
3,238,0,0.1611590961,0.1361908572,0.1880134973,3
3,240,0,0.1579991139,0.1331930963,0.1847326833,3
3,242,1,0.1579991139,,,3
3,244,0,0.1548072126,0.1301672091,0.1814175436,3
3,245,0,0.1516153113,0.1271471492,0.1780969923,3
3,247,0,0.1500193606,0.1256393358,0.1764346574,3
3,247,1,0.1500193606,,,3
3,249,1,0.1500193606,,,3
3,249,1,0.1500193606,,,3
3,250,0,0.1483707962,0.1240774409,0.1747230576,3
3,250,1,0.1483707962,,,3
3,251,1,0.1483707962,,,3
3,252,0,0.1466847645,0.122477494,0.1729760238,3
3,257,0,0.1449987327,0.1208794473,0.1712272333,3
3,259,0,0.1416266691,0.1176891214,0.1677243183,3
3,261,0,0.1399406374,0.1160968774,0.1659701604,3
3,265,0,0.1365685738,0.1129183197,0.1624563556,3
3,266,0,0.134882542,0.1113320452,0.1606966716,3
3,268,0,0.1331965103,0.109747801,0.158935107,3
3,268,1,0.1331965103,,,3
3,269,0,0.1314888627,0.1081427654,0.1571521303,3
3,273,0,0.1297812151,0.1065399133,0.1553671328,3
3,274,0,0.1280735675,0.1049392684,0.1535800919,3
3,275,0,0.12636592,0.1033408557,0.1517909841,3
3,275,1,0.12636592,,,3
3,277,0,0.12463488,0.1017200072,0.1499787145,3
3,278,1,0.12463488,,,3
3,279,0,0.1228794591,0.1000757833,0.1481423378,3
3,283,1,0.1228794591,,,3
3,285,0,0.1193177357,0.0967413423,0.1444167868,3
3,286,0,0.117536874,0.0950783128,0.1425501409,3
3,289,0,0.1157560122,0.093418124,0.1406808708,3
3,292,0,0.1121942888,0.0901064173,0.1369343173,3
3,292,1,0.1121942888,,,3
3,296,1,0.1121942888,,,3
3,297,0,0.1103550381,0.0883932156,0.1350050267,3
3,303,0,0.1085157875,0.0866834283,0.1330725872,3
3,309,0,0.1066765369,0.0849771036,0.1311369539,3
3,311,0,0.1048372862,0.083274292,0.1291980792,3
3,314,0,0.1029980356,0.0815750465,0.1272559134,3
3,318,0,0.101158785,0.079879423,0.1253104042,3
3,318,1,0.101158785,,,3
3,326,0,0.0992854741,0.0781515613,0.1233313615,3
3,326,1,0.0992854741,,,3
3,337,0,0.0973761381,0.0763896251,0.1213169397,3
3,338,1,0.0973761381,,,3
3,343,0,0.0954286153,0.0745915994,0.119265116,3
3,344,0,0.0934810926,0.0727984456,0.1172088109,3
3,346,0,0.0915335698,0.0710102487,0.1151479455,3
3,353,0,0.089586047,0.0692270985,0.113082436,3
3,353,1,0.089586047,,,3
3,353,1,0.089586047,,,3
3,356,0,0.0875500005,0.0673551684,0.1109357326,3
3,358,0,0.085513954,0.0654895059,0.1087832767,3
3,362,1,0.085513954,,,3
3,363,0,0.0834282478,0.0635773367,0.1065826299,3
3,373,0,0.0813425416,0.0616723485,0.1043753999,3
3,377,0,0.0792568354,0.0597746904,0.102161449,3
3,383,0,0.0771711292,0.0578845235,0.099940629,3
3,386,0,0.075085423,0.056002021,0.0977127802,3
3,388,1,0.075085423,,,3
3,391,1,0.075085423,,,3
3,395,1,0.075085423,,,3
3,397,1,0.075085423,,,3
3,402,1,0.075085423,,,3
3,412,0,0.0726633126,0.0537653231,0.0952025893,3
3,415,0,0.0702412022,0.0515432417,0.0926790785,3
3,427,0,0.0678190918,0.0493360889,0.0901419685,3
3,434,0,0.0653969813,0.0471442172,0.0875909431,3
3,440,1,0.0653969813,,,3
3,442,0,0.0628817128,0.0448673323,0.08495272,3
3,446,1,0.0628817128,,,3
3,449,0,0.0602616415,0.0424952873,0.0822173913,3
3,452,1,0.0602616415,,,3
3,459,1,0.0602616415,,,3
3,471,1,0.0602616415,,,3
3,472,1,0.0602616415,,,3
3,479,0,0.0570899761,0.0395276301,0.0790772013,3
3,486,1,0.0570899761,,,3
3,491,0,0.0537317422,0.036394915,0.0757753688,3
3,495,1,0.0537317422,,,3
3,505,0,0.0465675099,0.0298218396,0.0687186269,3
3,536,1,0.0465675099,,,3
3,562,1,0.0465675099,,,3
3,563,1,0.0465675099,,,3
3,584,1,0.0465675099,,,3
3,595,0,0.0413933422,0.0247740239,0.0644048148,3
3,601,1,0.0413933422,,,3
3,604,1,0.0413933422,,,3
3,607,0,0.0344944518,0.0179835753,0.0595347529,3
3,607,1,0.0344944518,,,3
3,614,1,0.0344944518,,,3
3,620,1,0.0344944518,,,3
3,635,0,0.0172472259,0.0027756095,0.060798015,3
3,711,1,,,,3
4,0,,1,1,1,4
4,30,0,0.9872340426,0.9609461894,0.9958648047,4
4,30,1,0.9872340426,,,4
4,30,1,0.9872340426,,,4
4,31,0,0.9786493987,0.9494681424,0.991057669,4
4,32,0,0.9700647549,0.9382346889,0.9856161927,4
4,32,1,0.9700647549,,,4
4,33,0,0.9657533559,0.9326874643,0.9827254221,4
4,34,0,0.9485077603,0.9111041304,0.970426789,4
4,35,0,0.9312621647,0.8902428714,0.9573160704,4
4,36,0,0.9183279679,0.8749414394,0.9471141137,4
4,37,0,0.9053937712,0.859872857,0.9366681664,4
4,38,0,0.8967709734,0.8499371289,0.9295901881,4
4,39,0,0.8838367766,0.835176717,0.9188259393,4
4,40,0,0.8795253777,0.8302912454,0.9152023591,4
4,41,0,0.8752139788,0.8254218532,0.9115623666,4
4,42,0,0.8579683832,0.8060925607,0.896851518,4
4,43,0,0.8407227875,0.7869755627,0.8819254884,4
4,45,0,0.8364113886,0.7822262243,0.8781637669,4
4,45,1,0.8364113886,,,4
4,46,0,0.810408962,0.7537829464,0.8552645687,4
4,46,1,0.810408962,,,4
4,47,1,0.810408962,,,4
4,48,0,0.8016477841,0.7442627006,0.8474792983,4
4,48,1,0.8016477841,,,4
4,49,0,0.7928384678,0.7347202916,0.8396188685,4
4,50,0,0.7884338096,0.7299636372,0.835674643,4
4,51,0,0.7840291515,0.7252163765,0.8317213607,4
4,51,1,0.7840291515,,,4
4,52,0,0.7795996082,0.7204467573,0.8277399873,4
4,54,0,0.775170065,0.715686373,0.8237497876,4
4,55,0,0.7618814353,0.7014586489,0.8117280315,4
4,55,1,0.7618814353,,,4
4,55,1,0.7618814353,,,4
4,56,0,0.7529181243,0.6918863416,0.8035906794,4
4,57,0,0.7394731578,0.6775922574,0.7913239126,4
4,58,0,0.7349915023,0.6728440867,0.7872193578,4
4,60,0,0.7305098468,0.6681039325,0.7831072035,4
4,61,0,0.7260281913,0.6633716582,0.7789875709,4
4,62,0,0.7081015693,0.6445188427,0.7624365021,4
4,62,1,0.7081015693,,,4
4,63,0,0.6945709661,0.6303527887,0.7498805407,4
4,64,0,0.690060765,0.6256453047,0.7456814613,4
4,65,0,0.6810403628,0.6162515565,0.7372631768,4
4,66,0,0.6720199607,0.6068855126,0.7288185804,4
4,68,0,0.6629995585,0.5975465201,0.7203482536,4
4,68,1,0.6629995585,,,4
4,69,0,0.6493762799,0.5834777527,0.7075192727,4
4,70,0,0.6266708156,0.5601613455,0.6860131364,4
4,71,0,0.613047537,0.5462478072,0.6730370527,4
4,72,0,0.6085064441,0.5416223701,0.6686998973,4
4,72,1,0.6085064441,,,4
4,73,1,0.6085064441,,,4
4,74,1,0.6085064441,,,4
4,74,1,0.6085064441,,,4
4,75,0,0.5991448065,0.5320638438,0.6597749033,4
4,75,1,0.5991448065,,,4
4,77,0,0.5897094552,0.5224469891,0.6507629526,4
4,79,1,0.5897094552,,,4
4,81,1,0.5897094552,,,4
4,82,1,0.5897094552,,,4
4,83,0,0.5848757712,0.5175133022,0.6461510179,4
4,86,0,0.575208403,0.5076693521,0.6369061443,4
4,86,1,0.575208403,,,4
4,86,1,0.575208403,,,4
4,88,0,0.5702920919,0.5026622287,0.6322048225,4
4,89,0,0.5653757808,0.4976633468,0.6274961854,4
4,90,0,0.5604594696,0.4926726402,0.6227802762,4
4,91,0,0.5506268474,0.482715507,0.6133268012,4
4,92,0,0.5309616028,0.4628968439,0.5943341961,4
4,93,0,0.5260452917,0.4579618198,0.5895683737,4
4,94,0,0.5162126694,0.4481150619,0.5800156942,4
4,95,0,0.5112963583,0.4432032607,0.5752288769,4
4,98,0,0.4965474249,0.4285138255,0.5608267052,4
4,99,0,0.4867148026,0.4187589473,0.5511906066,4
4,103,0,0.4817984914,0.413892878,0.5463621853,4
4,104,0,0.467049558,0.399340007,0.5318354696,4
4,105,0,0.4621332469,0.3945041384,0.5269794113,4
4,106,0,0.4523006246,0.3848550184,0.5172465382,4
4,107,0,0.4473843135,0.3800417712,0.512369707,4
4,108,0,0.4228027578,0.356088982,0.4878810815,4
4,109,0,0.4129701355,0.3465610816,0.4780365305,4
4,110,0,0.3982212021,0.3323268013,0.463216471,4
4,111,0,0.3883885798,0.3228760184,0.4533005664,4
4,113,0,0.3834722687,0.3181623577,0.4483317425,4
4,116,0,0.3736396464,0.3087587113,0.4383721382,4
4,120,0,0.3638070242,0.2993869537,0.4283829404,4
4,121,0,0.358890713,0.2947131667,0.4233771138,4
4,125,0,0.3490580907,0.2853900739,0.4133427168,4
4,125,1,0.3490580907,,,4
4,128,1,0.3490580907,,,4
4,134,0,0.3389404649,0.2757905489,0.4030273645,4
4,136,0,0.333881652,0.2710050074,0.3978566996,4
4,138,0,0.3288228391,0.2662290524,0.3926772706,4
4,138,1,0.3288228391,,,4
4,140,0,0.3236849822,0.2613767343,0.3874200479,4
4,141,0,0.3185471254,0.2565348472,0.3821533615,4
4,144,1,0.3185471254,,,4
4,146,0,0.3133250414,0.2516117699,0.3768038905,4
4,148,0,0.3081029573,0.2467000862,0.3714441557,4
4,153,0,0.3028808733,0.2417999091,0.3660740446,4
4,154,0,0.2976587893,0.2369113594,0.3606934376,4
4,155,0,0.2924367053,0.2320345662,0.3553022082,4
4,156,0,0.2872146212,0.2271696673,0.349900222,4
4,159,0,0.2819925372,0.2223168094,0.3444873366,4
4,160,0,0.2767704532,0.217476149,0.3390634014,4
4,163,0,0.2611042011,0.2030290703,0.3227236532,4
4,167,1,0.2611042011,,,4
4,168,0,0.255775544,0.1981249377,0.3171607118,4
4,170,0,0.2504468868,0.1932351143,0.3115848869,4
4,173,0,0.2451182296,0.1883598365,0.3059959536,4
4,174,0,0.2397895725,0.1834993568,0.3003936728,4
4,175,0,0.2344609153,0.1786539448,0.2947777905,4
4,177,0,0.223803601,0.1690094946,0.2835041217,4
4,178,1,0.223803601,,,4
4,191,1,0.223803601,,,4
4,195,1,0.223803601,,,4
4,199,0,0.2180650471,0.1637739507,0.2774923462,4
4,201,0,0.2123264932,0.1585606553,0.2714610066,4
4,205,0,0.2065879394,0.1533700595,0.265409674,4
4,209,0,0.2008493855,0.1482026541,0.259337885,4
4,212,0,0.1951108316,0.1430589727,0.253245138,4
4,213,0,0.1893722777,0.1379395958,0.2471308903,4
4,215,0,0.1836337239,0.1328451551,0.2409945536,4
4,217,0,0.17789517,0.1277763383,0.2348354902,4
4,218,0,0.1721566161,0.1227338956,0.2286530072,4
4,222,0,0.1664180623,0.1177186453,0.2224463512,4
4,224,0,0.1606795084,0.1127314825,0.216214701,4
4,228,1,0.1606795084,,,4
4,229,0,0.1547284155,0.1075525112,0.2097765405,4
4,241,0,0.1428262297,0.097300952,0.196806439,4
4,243,0,0.1368751368,0.0922311617,0.1902719528,4
4,246,0,0.1309240439,0.0872008283,0.1837025797,4
4,255,0,0.124972951,0.0822117842,0.1770966667,4
4,262,0,0.1190218581,0.077266085,0.1704523659,4
4,267,0,0.1130707652,0.0723660461,0.1637676027,4
4,271,1,0.1130707652,,,4
4,283,0,0.106789056,0.0671825274,0.1567669172,4
4,283,1,0.106789056,,,4
4,289,0,0.10011474,0.0616651674,0.149399608,4
4,295,0,0.093440424,0.0562348703,0.1419571454,4
4,298,0,0.086766108,0.0508975272,0.1344343759,4
4,299,0,0.080091792,0.0456601927,0.1268251688,4
4,300,1,0.080091792,,,4
4,300,1,0.080091792,,,4
4,301,0,0.0720826128,0.0392032998,0.1181955296,4
4,303,0,0.0640734336,0.0329926663,0.1093588282,4
4,305,0,0.0560642544,0.0270521793,0.1002958081,4
4,314,0,0.0480550752,0.0214149029,0.0909804276,4
4,350,0,0.040045896,0.0161277208,0.0813772211,4
4,381,1,0.040045896,,,4
4,465,0,0.030034422,0.0096869031,0.0706525991,4
4,494,1,,,,4
4,499,1,,,,4
4,634,1,,,,4
5,0,,1,1,1,5
5,28,0,0.9983136594,0.9880899324,0.999762284,5
5,30,0,0.9932546374,0.9821283047,0.9974629963,5
5,30,1,0.9932546374,,,5
5,31,0,0.9848085946,0.9710077159,0.9920667387,5
5,32,0,0.9679165089,0.9501600361,0.9794152277,5
5,32,1,0.9679165089,,,5
5,33,0,0.9594557003,0.9401159418,0.9726403066,5
5,33,1,0.9594557003,,,5
5,33,1,0.9594557003,,,5
5,34,0,0.9526630936,0.9321722965,0.9670727542,5
5,35,0,0.9407760318,0.9184806047,0.9571159492,5
5,36,0,0.9322852734,0.9088307787,0.9498722065,5
5,37,0,0.9203982116,0.8954655662,0.9395849917,5
5,38,0,0.9068129981,0.8803598296,0.9276581595,5
5,39,0,0.8983222397,0.8709953657,0.9201268661,5
5,40,0,0.891529633,0.8635409566,0.9140645239,5
5,40,1,0.891529633,,,5
5,40,1,0.891529633,,,5
5,41,0,0.879597114,0.8505106613,0.9033475667,5
5,42,0,0.8710738862,0.8412543855,0.8956417338,5
5,43,0,0.8608460128,0.8301974357,0.8863443664,5
5,44,0,0.8506181393,0.8191909173,0.8769967838,5
5,44,1,0.8506181393,,,5
5,44,1,0.8506181393,,,5
5,45,0,0.8386376022,0.8063506385,0.865993574,5
5,45,1,0.8386376022,,,5
5,46,0,0.8352075915,0.8026845636,0.8628331537,5
5,46,1,0.8352075915,,,5
5,46,1,0.8352075915,,,5
5,47,0,0.8162647389,0.7825101238,0.8453056417,5
5,47,1,0.8162647389,,,5
5,48,0,0.8059104293,0.7715347826,0.8356730843,5
5,49,0,0.7955561198,0.7605952303,0.8260053911,5
5,50,0,0.7782989371,0.7424366667,0.809819818,5
5,51,0,0.7713960641,0.7351976286,0.8033216018,5
5,51,1,0.7713960641,,,5
5,52,0,0.7627481261,0.7261451105,0.7951638983,5
5,53,0,0.7610185385,0.7243370441,0.7935299643,5
5,54,0,0.750641013,0.7135051945,0.7837101027,5
5,55,0,0.7454522502,0.7080996536,0.7787899681,5
5,55,1,0.7454522502,,,5
5,56,0,0.7385178107,0.7008843317,0.772205554,5
5,57,0,0.7246489316,0.686488711,0.7590023681,5
5,58,0,0.7177144921,0.6793078356,0.752384155,5
5,59,0,0.7107800526,0.6721378987,0.745755203,5
5,59,1,0.7107800526,,,5
5,60,0,0.7073043555,0.668547366,0.7424293454,5
5,60,1,0.7073043555,,,5
5,60,1,0.7073043555,,,5
5,61,0,0.705557925,0.6667433931,0.7407579149,5
5,61,1,0.705557925,,,5
5,62,0,0.6985548686,0.6595146929,0.7340503792,5
5,62,1,0.6985548686,,,5
5,62,1,0.6985548686,,,5
5,63,0,0.6915165324,0.6522569901,0.7273013445,5
5,64,0,0.6879973643,0.6486321982,0.7239228908,5
5,64,1,0.6879973643,,,5
5,65,0,0.6827050769,0.6431847771,0.7188384428,5
5,66,0,0.6809409811,0.641370305,0.7171423342,5
5,66,1,0.6809409811,,,5
5,66,1,0.6809409811,,,5
5,67,0,0.6756211297,0.6358998747,0.712025869,5
5,68,0,0.6667547107,0.6267958102,0.7034855732,5
5,68,1,0.6667547107,,,5
5,69,0,0.6578646479,0.6176816304,0.6949085648,5
5,69,1,0.6578646479,,,5
5,69,1,0.6578646479,,,5
5,69,1,0.6578646479,,,5
5,70,0,0.6435242741,0.6030028829,0.6810496799,5
5,70,1,0.6435242741,,,5
5,71,1,0.6435242741,,,5
5,72,0,0.6399190961,0.5993173225,0.6775608603,5
5,73,0,0.6345113291,0.5937939226,0.672322903,5
5,73,1,0.6345113291,,,5
5,74,0,0.6290881553,0.5882592405,0.6670656242,5
5,74,1,0.6290881553,,,5
5,74,1,0.6290881553,,,5
5,74,1,0.6290881553,,,5
5,75,0,0.6236178235,0.5826779623,0.6617607748,5
5,76,0,0.6163240478,0.575245639,0.654678717,5
5,77,0,0.6072068282,0.5659701034,0.6458119811,5
5,78,0,0.5999130524,0.558561403,0.6387074062,5
5,79,0,0.5962661646,0.5548609185,0.635151428,5
5,79,1,0.5962661646,,,5
5,80,0,0.5907790526,0.5492964448,0.6297978566,5
5,81,0,0.5889500153,0.5474429076,0.6280121046,5
5,81,1,0.5889500153,,,5
5,81,1,0.5889500153,,,5
5,82,0,0.5871095465,0.5455773772,0.6262155101,5
5,83,0,0.5797476713,0.5381218047,0.6190229043,5
5,83,1,0.5797476713,,,5
5,84,0,0.5668233602,0.5250544154,0.6063751671,5
5,85,0,0.5575917094,0.5157400353,0.5973225436,5
5,86,0,0.5520527189,0.5101591123,0.5918836286,5
5,87,0,0.5428210681,0.500870311,0.5828066226,5
5,88,0,0.5354357474,0.4934506565,0.5755341487,5
5,89,0,0.5298967569,0.487892518,0.5700734857,5
5,90,0,0.5262040966,0.4841902239,0.5664300503,5
5,91,0,0.5225114363,0.4804904278,0.562784226,5
5,92,0,0.5206651061,0.4786414648,0.5609604193,5
5,93,0,0.5132797855,0.4712518322,0.5536592412,5
5,93,1,0.5132797855,,,5
5,94,0,0.5114267898,0.4693987204,0.551826413,5
5,95,0,0.5021618118,0.4601425929,0.5426532577,5
5,96,0,0.4947498293,0.4527489829,0.5353039348,5
5,97,0,0.4891908425,0.4472103485,0.5297856528,5
5,98,0,0.4836318556,0.4416773414,0.5242619834,5
5,99,0,0.4743668775,0.4324681597,0.5150438979,5
5,100,0,0.4688078907,0.4269501481,0.5095058622,5
5,101,0,0.4651018995,0.423274599,0.5058108424,5
5,102,0,0.457689917,0.4159310077,0.4984136043,5
5,103,0,0.4558369214,0.4140966753,0.4965627933,5
5,103,1,0.4558369214,,,5
5,104,0,0.4446735682,0.4030551364,0.4854035977,5
5,104,1,0.4446735682,,,5
5,105,0,0.4409368155,0.3993629327,0.4816646255,5
5,106,0,0.4315949338,0.3901438571,0.4723062632,5
5,107,0,0.4297265575,0.3883020069,0.4704327116,5
5,107,1,0.4297265575,,,5
5,108,0,0.4240969519,0.3827541583,0.4647857862,5
5,109,0,0.4203438816,0.3790589467,0.4610179665,5
5,110,0,0.4184673464,0.3772123496,0.4591330934,5
5,111,0,0.4053316001,0.3643050848,0.4459209091,5
5,112,0,0.4034550649,0.3624639044,0.4440308599,5
5,113,0,0.3997019945,0.3587835907,0.4402488045,5
5,114,0,0.3921958538,0.3514311871,0.4326768302,5
5,115,0,0.3884427834,0.3477591187,0.4288868899,5
5,115,1,0.3884427834,,,5
5,116,0,0.3865571388,0.3459144089,0.4269825208,5
5,117,0,0.3846714943,0.3440704076,0.4250774753,5
5,117,1,0.3846714943,,,5
5,118,0,0.3808816273,0.3403647385,0.4212482,5
5,119,0,0.3733018934,0.3329621529,0.4135813101,5
5,120,0,0.3695120265,0.3292652641,0.409743668,5
5,121,0,0.3638272261,0.3237254779,0.4039819168,5
5,123,0,0.3600373592,0.3200360082,0.4001372013,5
5,125,0,0.3581424257,0.318192396,0.398213773,5
5,125,1,0.3581424257,,,5
5,126,0,0.3562374128,0.3163388277,0.3962803051,5
5,127,0,0.3543323999,0.3144860299,0.3943461038,5
5,128,0,0.3486173612,0.3089322829,0.3885390774,5
5,129,0,0.3429023225,0.3033855565,0.3827253669,5
5,130,0,0.3390922967,0.2996916732,0.3788458132,5
5,132,0,0.333377258,0.2941568043,0.3730208098,5
5,133,0,0.3295672322,0.2904708957,0.3691336598,5
5,134,0,0.3238521934,0.2849480995,0.3632971543,5
5,135,0,0.3219471805,0.2831087979,0.3613500988,5
5,136,0,0.3200421676,0.281270317,0.3594022611,5
5,136,1,0.3200421676,,,5
5,137,1,0.3200421676,,,5
5,138,0,0.314258273,0.2756872152,0.353490008,5
5,139,0,0.3123303082,0.2738279312,0.3515175966,5
5,139,1,0.3123303082,,,5
5,140,0,0.3065104888,0.2682174931,0.3455619559,5
5,141,0,0.304570549,0.266349174,0.3435750121,5
5,142,0,0.3026306092,0.2644817751,0.3415871966,5
5,143,0,0.3006906694,0.2626153008,0.3395985051,5
5,144,0,0.2968107898,0.2588851428,0.3356184779,5
5,144,1,0.2968107898,,,5
5,145,0,0.2948580872,0.2570080091,0.3336152894,5
5,145,1,0.2948580872,,,5
5,147,0,0.290926646,0.2532292011,0.3295820024,5
5,148,0,0.2889609255,0.2513413027,0.3275639381,5
5,149,0,0.2869952049,0.2494544147,0.3255449201,5
5,151,0,0.2850294843,0.2475685423,0.3235249435,5
5,153,0,0.2810980431,0.2437998654,0.3194820938,5
5,153,1,0.2810980431,,,5
5,155,0,0.2791184794,0.2419024856,0.3174463729,5
5,156,0,0.2771389158,0.2400061738,0.3154096455,5
5,156,1,0.2771389158,,,5
5,157,0,0.2751451106,0.2380959235,0.3133587128,5
5,158,0,0.2731513055,0.2361867856,0.3113067339,5
5,158,1,0.2731513055,,,5
5,159,0,0.27114284,0.2342633054,0.3092401355,5
5,161,0,0.2691343745,0.2323409849,0.3071724487,5
5,162,0,0.2631089781,0.2265810478,0.3009627931,5
5,163,0,0.2611005126,0.2246634333,0.2988906872,5
5,164,0,0.2550751161,0.2189177847,0.2926676093,5
5,164,1,0.2550751161,,,5
5,167,0,0.2530507104,0.2169882264,0.2905762083,5
5,168,0,0.2490018991,0.2131329151,0.286389837,5
5,170,0,0.2449530877,0.2092827339,0.2821986524,5
5,172,0,0.242928682,0.207359589,0.280101234,5
5,173,1,0.242928682,,,5
5,175,0,0.2408872645,0.2054198846,0.2779868333,5
5,176,0,0.238845847,0.2034815452,0.2758711539,5
5,178,0,0.234763012,0.199609001,0.2716359213,5
5,178,1,0.234763012,,,5
5,179,0,0.2327036874,0.1976560146,0.2694997808,5
5,180,0,0.228585038,0.193754425,0.2652234006,5
5,182,0,0.2265257134,0.1918058444,0.2630831392,5
5,183,0,0.2244663887,0.1898587554,0.2609414821,5
5,185,0,0.222407064,0.1879131699,0.2587984178,5
5,186,0,0.2203477394,0.1859691003,0.2566539344,5
5,186,1,0.2203477394,,,5
5,187,0,0.2182689871,0.1840062013,0.2544900489,5
5,188,0,0.2141114826,0.1800852239,0.2501577744,5
5,189,0,0.2120327303,0.1781271732,0.2479893588,5
5,191,0,0.2099539781,0.1761707671,0.245819406,5
5,193,1,0.2099539781,,,5
5,195,1,0.2099539781,,,5
5,196,0,0.1972294946,0.1642058409,0.2325321351,5
5,197,0,0.1951087473,0.1622182521,0.2303114757,5
5,198,0,0.1929880001,0.1602325884,0.2280890223,5
5,199,0,0.1908672528,0.1582488698,0.225864756,5
5,201,0,0.1887465055,0.1562671165,0.2236386574,5
5,202,0,0.184505011,0.1523095907,0.2191808828,5
5,203,0,0.1823842638,0.1503338621,0.2169491649,5
5,204,0,0.1802635165,0.1483601869,0.2147155311,5
5,205,0,0.176022022,0.1444190926,0.2102424248,5
5,205,1,0.176022022,,,5
5,205,1,0.176022022,,,5
5,206,0,0.1695026879,0.1383605134,0.2033724083,5
5,211,0,0.1673295765,0.1363458245,0.2010779089,5
5,212,0,0.1651564651,0.1343336052,0.1987811143,5
5,214,1,0.1651564651,,,5
5,215,0,0.1607522927,0.13025648,0.1941271842,5
5,216,0,0.1585502065,0.1282219678,0.1917964629,5
5,217,0,0.1563481203,0.1261902051,0.1894631908,5
5,218,0,0.1519439479,0.1221350842,0.1847888469,5
5,226,1,0.1519439479,,,5
5,227,1,0.1519439479,,,5
5,228,0,0.1496761278,0.1200433724,0.1823876296,5
5,229,0,0.1474083077,0.1179549455,0.1799833791,5
5,230,0,0.1451404876,0.1158698526,0.1775760493,5
5,231,0,0.1428726674,0.113788145,0.1751655916,5
5,234,0,0.1406048473,0.1117098761,0.1727519558,5
5,235,0,0.1383370272,0.1096351016,0.1703350894,5
5,240,0,0.1360692071,0.1075638797,0.1679149379,5
5,243,0,0.133801387,0.1054962709,0.1654914442,5
5,243,1,0.133801387,,,5
5,245,0,0.1314944665,0.1033917741,0.1630289927,5
5,248,0,0.129187546,0.1012912898,0.1605628389,5
5,249,0,0.1268806256,0.0991948913,0.1580929144,5
5,249,1,0.1268806256,,,5
5,250,1,0.1268806256,,,5
5,252,0,0.1244866515,0.0970120946,0.1555406714,5
5,254,1,0.1244866515,,,5
5,258,0,0.1220457368,0.0947851326,0.1529420089,5
5,261,0,0.119604822,0.0925636085,0.150338367,5
5,262,0,0.1171639073,0.090347628,0.1477296471,5
5,264,1,0.1171639073,,,5
5,265,1,0.1171639073,,,5
5,265,1,0.1171639073,,,5
5,268,0,0.1145602649,0.0879661314,0.1449727442,5
5,279,0,0.1093529801,0.0832257696,0.1394383559,5
5,280,1,0.1093529801,,,5
5,283,1,0.1093529801,,,5
5,284,0,0.1066191556,0.08072919,0.1365486733,5
5,288,0,0.1038853311,0.0782423184,0.1336501956,5
5,290,0,0.1011515066,0.0757653649,0.1307427289,5
5,311,0,0.0984176821,0.0732985561,0.127826064,5
5,318,0,0.0956838576,0.0708421367,0.1248999757,5
5,322,0,0.0929500331,0.0683963708,0.1219642208,5
5,324,1,0.0929500331,,,5
5,333,0,0.0901333654,0.065874416,0.1189482217,5
5,335,1,0.0901333654,,,5
5,336,0,0.0872258375,0.0632690903,0.1158447932,5
5,339,0,0.0843183096,0.0606785873,0.1127279781,5
5,339,1,0.0843183096,,,5
5,340,0,0.0813069414,0.0579934656,0.1095119929,5
5,342,0,0.0782955732,0.0553264622,0.1062796821,5
5,343,0,0.075284205,0.0526781645,0.1030305141,5
5,349,0,0.0722728368,0.0500492263,0.0997638979,5
5,352,0,0.0692614686,0.0474403762,0.0964791753,5
5,354,0,0.0662501004,0.0448524283,0.0931756119,5
5,359,0,0.0632387322,0.042286295,0.0898523863,5
5,384,0,0.060227364,0.0397430017,0.0865085768,5
5,398,1,0.060227364,,,5
5,398,1,0.060227364,,,5
5,416,0,0.0568813993,0.0368791168,0.0828799844,5
5,421,1,0.0568813993,,,5
5,426,1,0.0568813993,,,5
5,433,1,0.0568813993,,,5
5,451,1,0.0568813993,,,5
5,481,1,0.0568813993,,,5
5,499,0,0.0521412827,0.0325143218,0.0783457066,5
5,517,1,0.0521412827,,,5
5,519,0,0.0469271545,0.0277644218,0.0734481585,5
5,521,1,0.0469271545,,,5
5,542,0,0.0410612602,0.0225123697,0.0680916259,5
5,543,1,0.0410612602,,,5
5,579,0,0.0342177168,0.016573111,0.0621478939,5
5,612,1,0.0342177168,,,5
5,639,0,0.0256632876,0.0096509963,0.0555316815,5
5,648,1,,,,5
5,667,1,,,,5
5,674,1,,,,5
6,0,,1,1,1,6
6,29,0,0.9977678571,0.9842613085,0.9996852708,6
6,30,0,0.9888392857,0.9733954711,0.9953393988,6
6,30,1,0.9888392857,,,6
6,31,0,0.9776533209,0.9588657744,0.9879137294,6
6,32,0,0.9575185844,0.9342050605,0.9726915887,6
6,33,0,0.9508070055,0.9262471884,0.9673321235,6
6,33,1,0.9508070055,,,6
6,34,0,0.9440795974,0.9183586104,0.961865017,6
6,35,0,0.9306247813,0.9028085053,0.9506970307,6
6,36,0,0.9171699652,0.8874993938,0.9392828461,6
6,37,0,0.9082000878,0.8774016616,0.9315633511,6
6,38,0,0.896987741,0.864882436,0.9218098204,6
6,39,0,0.890260333,0.8574196135,0.9159085226,6
6,40,0,0.8812904556,0.847520179,0.9079887377,6
6,41,0,0.8678356394,0.8327694035,0.8960100891,6
6,42,0,0.858865762,0.8229946599,0.8879649497,6
6,42,1,0.858865762,,,6
6,43,0,0.852120743,0.8156701134,0.8818885746,6
6,44,0,0.8453757239,0.8083687102,0.8757891061,6
6,45,0,0.8431273842,0.8059398387,0.8737510324,6
6,46,0,0.8408790445,0.8035133611,0.871710571,6
6,47,0,0.8296373461,0.7914155181,0.861473819,6
6,48,0,0.8138989682,0.7745689457,0.847052262,6
6,49,0,0.793663911,0.753049314,0.8283705905,6
6,50,0,0.7824222125,0.7411562436,0.817929908,6
6,51,0,0.7734288538,0.7316716429,0.8095476722,6
6,51,1,0.7734288538,,,6
6,52,0,0.7666641699,0.7245517413,0.803227873,6
6,53,0,0.7598994861,0.7174458528,0.7968942029,6
6,53,1,0.7598994861,,,6
6,54,0,0.7576378805,0.7150723953,0.7947743069,6
6,54,1,0.7576378805,,,6
6,55,0,0.7508327498,0.7079373258,0.7883885058,6
6,55,1,0.7508327498,,,6
6,56,0,0.7349059945,0.6912847854,0.7733964088,6
6,57,0,0.7258049915,0.681800739,0.7647984597,6
6,58,0,0.7235297407,0.6794332102,0.7626455601,6
6,58,1,0.7235297407,,,6
6,59,0,0.7166824561,0.6723139536,0.7561603965,6
6,60,0,0.7098351715,0.665206936,0.7496632787,6
6,60,1,0.7098351715,,,6
6,61,0,0.7052555897,0.6604586496,0.7453127008,6
6,62,0,0.700676008,0.6557156869,0.7409569382,6
6,63,0,0.6938066354,0.6486110652,0.734413725,6
6,64,0,0.6800678901,0.6344363433,0.7212936503,6
6,65,0,0.6731985175,0.6273658205,0.7147171932,6
6,66,0,0.6617495631,0.6156058976,0.703732743,6
6,66,1,0.6617495631,,,6
6,68,0,0.6502608554,0.6038307341,0.6926845823,6
6,69,0,0.6456653723,0.5991289357,0.6882572749,6
6,70,0,0.6341766646,0.587394722,0.6771692661,6
6,71,0,0.6295811816,0.582709043,0.6727262683,6
6,72,0,0.6249856985,0.5780278822,0.6682788713,6
6,73,0,0.6134969908,0.5663445188,0.6571413517,6
6,73,1,0.6134969908,,,6
6,74,0,0.6088842315,0.5616595829,0.6526635685,6
6,74,1,0.6088842315,,,6
6,75,0,0.6042539331,0.5569594881,0.648165985,6
6,75,1,0.6042539331,,,6
6,75,1,0.6042539331,,,6
6,76,0,0.5995878796,0.5522239257,0.6436324883,6
6,77,0,0.594921826,0.547492978,0.6390945525,6
6,78,0,0.5879227457,0.5404051434,0.6322793854,6
6,79,0,0.5832566922,0.5356856036,0.6277304691,6
6,79,1,0.5832566922,,,6
6,80,0,0.5762295031,0.5285835076,0.6208740109,6
6,81,0,0.5715447104,0.52385448,0.616297561,6
6,82,0,0.5668599177,0.519129987,0.611716754,6
6,83,0,0.562175125,0.5144100064,0.6071316096,6
6,84,0,0.5551479359,0.5073384515,0.6002458007,6
6,85,0,0.5434359542,0.495574816,0.5887480102,6
6,86,0,0.5410935578,0.4932254138,0.5864452523,6
6,87,0,0.5387511615,0.4908771156,0.5841414317,6
6,89,0,0.5340663688,0.4861838245,0.5795306082,6
6,91,0,0.5246967833,0.4768104222,0.5702962694,6
6,92,0,0.5153271979,0.4674545249,0.5610450686,6
6,93,0,0.5129848016,0.4651182778,0.5587296408,6
6,94,0,0.5106424052,0.46278312,0.5564131634,6
6,95,0,0.5036152162,0.4557841747,0.5494574397,6
6,96,0,0.489560838,0.4418156189,0.5355177176,6
6,97,0,0.482533649,0.4348459963,0.5285337287,6
6,98,0,0.4778488563,0.4302050097,0.5238725023,6
6,99,0,0.4731640636,0.4255683687,0.5192070862,6
6,100,1,0.4731640636,,,6
6,101,0,0.4661019133,0.4185836239,0.5121694174,6
6,102,0,0.4590397631,0.4116088934,0.505122123,6
6,102,1,0.4590397631,,,6
6,103,0,0.4472088414,0.3999410763,0.4933000185,6
6,103,1,0.4472088414,,,6
6,103,1,0.4472088414,,,6
6,104,0,0.4448173503,0.3975835131,0.4909093762,6
6,105,0,0.4376428769,0.39051803,0.4837305844,6
6,108,0,0.4304684035,0.3834633853,0.476541464,6
6,109,0,0.420902439,0.3740741286,0.4669398242,6
6,109,1,0.420902439,,,6
6,110,0,0.4184972822,0.3717150973,0.4645241002,6
6,110,1,0.4184972822,,,6
6,110,1,0.4184972822,,,6
6,111,0,0.411197911,0.3645550149,0.4571935033,6
6,112,0,0.4063316635,0.3597882184,0.452300207,6
6,113,0,0.401465416,0.3550267183,0.4474019011,6
6,114,0,0.3990322923,0.3526479613,0.4449508625,6
6,115,0,0.3892997974,0.3431462894,0.4351340659,6
6,116,0,0.3820004262,0.3360341523,0.4277581005,6
6,117,0,0.3722679312,0.3265703154,0.4179054656,6
6,118,0,0.36496856,0.3194868433,0.4105023341,6
6,120,0,0.3601023126,0.3147714575,0.4055603425,6
6,121,0,0.3576691888,0.3124158582,0.403087361,6
6,123,1,0.3576691888,,,6
6,124,0,0.350319822,0.3053041802,0.3956145816,6
6,125,0,0.347870033,0.3029365348,0.3931208991,6
6,126,0,0.3429704551,0.2982056501,0.3881293656,6
6,127,0,0.3356210882,0.2911204333,0.3806315521,6
6,128,0,0.3331712992,0.2887616835,0.3781294516,6
6,129,0,0.3282717213,0.2840487097,0.3731209662,6
6,131,0,0.3184725654,0.2746410751,0.3630866546,6
6,132,0,0.3160227764,0.2722930279,0.3605744196,6
6,133,0,0.3135729875,0.2699465419,0.3580607057,6
6,134,0,0.3086734096,0.2652582888,0.3530288076,6
6,135,0,0.2988742537,0.2559009184,0.3429468814,6
6,136,0,0.2964244647,0.2535656194,0.3404225683,6
6,137,0,0.2939746758,0.2512319584,0.3378967029,6
6,139,0,0.2866253089,0.2442409127,0.3303096894,6
6,140,0,0.2817257309,0.2395886109,0.3252437239,6
6,142,0,0.279275942,0.2372650144,0.3227083201,6
6,143,1,0.279275942,,,6
6,146,0,0.2768044735,0.2349203133,0.3201512754,6
6,147,0,0.2718615364,0.2302363177,0.3150320798,6
6,150,1,0.2718615364,,,6
6,151,0,0.2693673939,0.2278731774,0.3124489993,6
6,152,0,0.2668732514,0.2255119479,0.3098641202,6
6,154,0,0.2618849663,0.2207952822,0.3046889085,6
6,155,0,0.2593908238,0.2184398771,0.3020985463,6
6,156,0,0.2544025387,0.2137350037,0.2969122316,6
6,157,0,0.2494142536,0.2090381598,0.2917183552,6
6,159,0,0.2444259685,0.2043494889,0.2865167808,6
6,160,0,0.2394376835,0.1996691429,0.2813073645,6
6,161,0,0.2369435409,0.1973321415,0.2786996685,6
6,162,1,0.2369435409,,,6
6,163,0,0.229381513,0.1902511,0.2707906117,6
6,164,0,0.2268608371,0.1878953369,0.268149956,6
6,165,0,0.2243401611,0.1855419059,0.2655071109,6
6,166,0,0.2218194851,0.1831908317,0.2628620526,6
6,169,0,0.2167781332,0.1784958584,0.2575651983,6
6,171,0,0.2142574572,0.1761520132,0.2549133512,6
6,172,0,0.2117367813,0.1738106332,0.2522591888,6
6,175,0,0.2092161053,0.1714717475,0.2496026835,6
6,176,0,0.2066954293,0.1691353863,0.2469438069,6
6,180,0,0.2041747534,0.1668015807,0.2442825297,6
6,181,0,0.2016540774,0.1644703628,0.2416188217,6
6,182,0,0.1940920495,0.1574925732,0.2336127945,6
6,184,0,0.1915713735,0.1551720495,0.2309390399,6
6,186,1,0.1915713735,,,6
6,188,0,0.1890170885,0.1528194842,0.2282315922,6
6,189,0,0.1864628036,0.1504698815,0.2255213728,6
6,190,0,0.1839085186,0.1481232836,0.2228083418,6
6,190,1,0.1839085186,,,6
6,191,0,0.1813182578,0.1457424554,0.2200592813,6
6,194,0,0.1787279969,0.1433649055,0.2173071657,6
6,197,0,0.1761377361,0.1409906831,0.2145519488,6
6,199,1,0.1761377361,,,6
6,200,0,0.1735088147,0.1385797562,0.2117580576,6
6,203,0,0.1682509718,0.1337689039,0.2061600602,6
6,204,0,0.1656220504,0.1313690964,0.2033558431,6
6,205,1,0.1656220504,,,6
6,207,0,0.162950727,0.1289291761,0.2005092534,6
6,209,0,0.1602794036,0.1264934145,0.1976588158,6
6,210,0,0.1576080802,0.1240618832,0.1948044629,6
6,211,0,0.1549367568,0.121634657,0.1919461249,6
6,216,0,0.1522654334,0.1192118139,0.1890837284,6
6,216,1,0.1522654334,,,6
6,223,1,0.1522654334,,,6
6,229,0,0.149496971,0.1166927234,0.1861289295,6
6,229,1,0.149496971,,,6
6,231,0,0.1466762734,0.1141244584,0.1831222658,6
6,235,1,0.1466762734,,,6
6,236,0,0.143800268,0.1115041566,0.1800608348,6
6,240,0,0.1409242627,0.108890247,0.1769935724,6
6,247,0,0.1380482573,0.1062828543,0.173920362,6
6,250,1,0.1380482573,,,6
6,251,0,0.1351110604,0.103618131,0.170786698,6
6,251,1,0.1351110604,,,6
6,253,0,0.1321085924,0.100892307,0.1675887661,6
6,256,0,0.1291061243,0.0981747403,0.1643833441,6
6,261,1,0.1291061243,,,6
6,263,0,0.126032169,0.0953904661,0.1611077669,6
6,265,1,0.126032169,,,6
6,278,1,0.126032169,,,6
6,281,0,0.1228005749,0.0924487068,0.1576879423,6
6,283,0,0.1195689808,0.0895188248,0.1542574382,6
6,283,1,0.1195689808,,,6
6,284,1,0.1195689808,,,6
6,291,0,0.1161527243,0.0864037812,0.1506607257,6
6,291,1,0.1161527243,,,6
6,293,0,0.1126329447,0.0831927363,0.146964812,6
6,296,0,0.1091131652,0.0799996203,0.1432528924,6
6,297,1,0.1091131652,,,6
6,298,0,0.1054760597,0.0766984134,0.1394292172,6
6,299,0,0.1018389542,0.0734186656,0.1355864186,6
6,301,0,0.0982018487,0.0701609358,0.1317239897,6
6,305,0,0.0945647432,0.0669258477,0.1278413652,6
6,311,0,0.0909276377,0.0637140974,0.123937915,6
6,317,0,0.0872905322,0.0605264623,0.1200129362,6
6,324,0,0.0836534267,0.0573638121,0.1160656439,6
6,325,0,0.0800163212,0.0542271205,0.1120951602,6
6,331,0,0.0763792156,0.0511174814,0.1081005013,6
6,333,1,0.0763792156,,,6
6,355,1,0.0763792156,,,6
6,357,0,0.0723592569,0.0476371578,0.1037795133,6
6,371,0,0.0683392982,0.0442011224,0.0994192994,6
6,385,0,0.0643193395,0.0408115285,0.0950179661,6
6,386,0,0.0602993808,0.0374709045,0.0905732945,6
6,419,1,0.0602993808,,,6
6,421,0,0.0559922821,0.0338887865,0.0858713779,6
6,425,0,0.0516851835,0.0303796881,0.0811053012,6
6,465,0,0.0473780849,0.0269489026,0.0762705509,6
6,471,0,0.0430709863,0.0236029946,0.0713615726,6
6,474,1,0.0430709863,,,6
6,477,1,0.0430709863,,,6
6,521,0,0.037687113,0.0192874936,0.0657284617,6
6,540,0,0.0323032397,0.0152201177,0.0598832881,6
6,557,1,0.0323032397,,,6
6,587,1,0.0323032397,,,6
6,598,1,0.0323032397,,,6
6,632,0,0.0215354931,0.0064338854,0.0539784467,6
6,656,1,,,,6
6,669,1,,,,6
