paddrs,location,COUNT,PERCENT,PCT_ROW,PCT_COL
1,community,5832,20.672787211,50.017152659,44.951441344
1,died_in_facility,3721,13.189890468,31.912521441,59.794311425
1,hospital,833,2.9527489277,7.1440823328,27.019137204
1,other,158,0.5600652228,1.3550600343,28.623188406
1,rehab,515,1.825529049,4.4168096055,40.583136328
1,residential_care,601,2.1303746765,5.154373928,14.622871046
2,community,2115,7.4970756088,41.429970617,16.301834438
2,died_in_facility,1243,4.4060827337,24.348677767,19.974288928
2,hospital,782,2.7719683811,15.318315377,25.364904314
2,other,95,0.336748077,1.860920666,17.210144928
2,rehab,219,0.7762929354,4.2899118511,17.257683215
2,residential_care,651,2.3076105065,12.752203722,15.839416058
3,community,3257,11.545141966,48.452841416,25.104054262
3,died_in_facility,686,2.4316755875,10.205296043,11.023622047
3,hospital,961,3.4064726525,14.296340375,31.170937399
3,other,152,0.5387969232,2.2612317763,27.536231884
3,rehab,374,1.3257240084,5.5638202916,29.472025217
3,residential_care,1292,4.5797738471,19.220470098,31.435523114
4,community,597,2.1161958101,50.593220339,4.6015107137
4,died_in_facility,59,0.2091382794,5,0.9480957737
4,hospital,137,0.4856261742,11.610169492,4.4437236458
4,other,23,0.0815284818,1.9491525424,4.1666666667
4,rehab,53,0.1878699798,4.4915254237,4.1765169425
4,residential_care,311,1.1024068626,26.355932203,7.5669099757
5,community,791,2.8038708305,35.873015873,6.0968090026
5,died_in_facility,327,1.1591223282,14.829931973,5.2547003053
5,hospital,232,0.8223742512,10.52154195,7.5251378527
5,other,67,0.2374960122,3.0385487528,12.137681159
5,rehab,78,0.2764878948,3.537414966,6.146572104
5,residential_care,710,2.5167487859,32.199546485,17.274939173
6,community,382,1.3540817412,28.528752801,2.9443502389
6,died_in_facility,187,0.6628620042,13.965646004,3.0049815202
6,hospital,138,0.4891708908,10.306198656,4.4761595848
6,other,57,0.2020488462,4.2569081404,10.326086957
6,rehab,30,0.106341498,2.2404779686,2.3640661939
6,residential_care,545,1.9318705469,40.70201643,13.260340633
