hospital,alc,overall
1 ER visit in past 90 days,0,38.0
1 ER visit in past 90 days,1,37.8
1 hospital stay in past 90 days,0,56.2
1 hospital stay in past 90 days,1,54.5
2+ ER visits in past 90 days,0,8.3
2+ ER visits in past 90 days,1,9.1
2+ hospital stays in past 90 days,0,23.5
2+ hospital stays in past 90 days,1,23.0
