infection,alc,overall
Antibiotic resistant infection,0,10.4
Antibiotic resistant infection,1,10.8
Cellulitis,0,2.8
Cellulitis,1,2.3
Clostridium difficile,0,2.8
Clostridium difficile,1,2.4
HIV infection,0,0.1
HIV infection,1,0.2
Pneumonia,0,8.0
Pneumonia,1,5.2
Respiratory Infection,0,2.7
Respiratory Infection,1,1.5
Tuberculosis (active),0,0.0
Tuberculosis (active),1,0.1
Urinary Tract Infection,0,19.9
Urinary Tract Infection,1,22.4
Viral hepatitis,0,2.2
Viral hepatitis,1,1.6
Wound Infection,0,5.6
Wound Infection,1,3.6
