treatment,alc,overall
Acute Condition Monitoring,0,60.9
Acute Condition Monitoring,1,53.1
Chemotherapy,0,1.1
Chemotherapy,1,0.6
Community Skills Training,0,42.3
Community Skills Training,1,27.6
Dialysis,0,2.2
Dialysis,1,2.0
Feeding Tube,0,5.1
Feeding Tube,1,5.2
Hospice,0,13.0
Hospice,1,3.8
IV Medication,0,14.0
IV Medication,1,7.2
Indwelling catheter,0,18.9
Indwelling catheter,1,16.8
Intake/Output,0,27.3
Intake/Output,1,19.0
Oxygen Therapy,0,20.3
Oxygen Therapy,1,11.1
Parenteral IV,0,7.7
Parenteral IV,1,3.5
Radiation,0,0.5
Radiation,1,0.1
Suctioning,0,4.1
Suctioning,1,1.3
"Tracheostomy, Ventilator or Respirator",0,2.3
"Tracheostomy, Ventilator or Respirator",1,0.8
Transfusions,0,2.4
Transfusions,1,1.7
"Trunk, limb or chair restraint",0,10.9
"Trunk, limb or chair restraint",1,19.1
