0--64 &	15.9 &	12.3 \\
65--74 &	17.3 &	13.8 \\
75--84 &	33.7 &	33.8 \\
85--94 &	30 &	35.8 \\
95+ &	3.2 &	4.3 \\
Absence of personal contact with family or friends &	4.7 &	5.6 \\
Conflict with others &	9.2 &	12.7 \\
Female &	58.3 &	55.9 \\
Lived alone prior to entry &	25.9 &	30.9 \\
Married &	39.8 &	34.6 \\
Primary language other than English and French &	10.2 &	11.9 \\
Prior stay in board and care facility &	8 &	8.7 \\
Prior stay in psychiatric care facility &	0.7 &	1.8 \\
Prior stay in subacute care facility &	25.1 &	36.4 \\
Resident expresses or indicates preference to return to the communit &	70.6 &	61.9 \\
Resident has a support person who is positive towards discharge &	67.6 &	60.5 \\
